Place,Name,State,WeightClassKg,BodyweightKg,BirthDate,Age,Squat1Kg,Squat2Kg,Squat3Kg,Best3SquatKg,Bench1Kg,Bench2Kg,Bench3Kg,Best3BenchKg,Deadlift1Kg,Deadlift2Kg,Deadlift3Kg,Best3DeadliftKg,TotalKg,Deadlift4Kg,Event,Equipment,Sex,Division,Tested
1,Priscilla Rozic,PA,60,58.7,,18,117.5,127.5,132.5,132.5,-60,-62.5,62.5,62.5,142.5,150,-160,150,345,,SBD,Raw,F,Juniors 18-19,Yes
1,Priscilla Rozic,PA,60,58.7,,18,117.5,127.5,132.5,132.5,-60,-62.5,62.5,62.5,142.5,150,-160,150,345,,SBD,Raw,F,Open,Yes
1,Jessa Covine,PA,67.5,66.5,,28,117.5,127.5,-132.5,127.5,70,75,-80,75,167.5,185,-190,185,387.5,,SBD,Raw,F,Open,Yes
1,Dawn Cassell,NY,75,72,,37,145,155,-160,155,82.5,87.5,90,90,167.5,177.5,185,185,430,,SBD,Raw,F,Open,Yes
1,Megan Mercer,PA,90,87,,29,90,95,102.5,102.5,57.5,60,62.5,62.5,110,115,122.5,122.5,287.5,,SBD,Raw,F,Open,Yes
DQ,Chris Beeman,OH,75,74.3,,18,-190,-190,-190,,-125,-125,,,,,,,,,SBD,Raw,M,Juniors 18-19,Yes
1,Ben Britton,PA,75,74,,22,180,185,190,190,92.5,100,,100,240,245,250,250,540,,SBD,Raw,M,Juniors 20-23,Yes
2,Ryan Knebl,OH,75,75,,20,145,162.5,172.5,172.5,95,107.5,115,115,197.5,215,-227.5,215,502.5,,SBD,Raw,M,Juniors 20-23,Yes
1,Jacob Griffin,OH,82.5,81.6,,18,185,-190,-190,185,117.5,120,-125,120,205,-215,-215,205,510,,SBD,Raw,M,Juniors 18-19,Yes
2,Jenson Baker,OH,82.5,79.5,,19,175,182.5,-190,182.5,100,105,110,110,192.5,207.5,-217.5,207.5,500,,SBD,Raw,M,Juniors 18-19,Yes
1,Ali Awad,OH,82.5,81,,21,180,185,-190,185,-87.5,90,-95,90,220,230,240,240,515,,SBD,Raw,M,Juniors 20-23,Yes
2,Landon Baker,OH,82.5,78.2,,23,162.5,172.5,180,180,90,97.5,-100,97.5,192.5,-207.5,207.5,207.5,485,,SBD,Raw,M,Juniors 20-23,Yes
1,Phoenix Ross,PA,90,87.8,,15,150,157.5,162.5,162.5,82.5,-90,90,90,182.5,190,-200,190,442.5,,SBD,Raw,M,Juniors 13-15,Yes
1,Macallan Butzer,OH,90,87.6,,18,215,232.5,247.5,247.5,120,130,-137.5,130,252.5,275,285,285,662.5,,SBD,Raw,M,Juniors 18-19,Yes
1,Ruben Belodedici,OH,100,97.8,,18,192.5,207.5,217.5,217.5,135,145,-155,145,240,250,265,265,627.5,,SBD,Raw,M,Juniors 18-19,Yes
1,Gabe Hamrock,OH,110,106.8,,17,200,220,230,230,110,122.5,-132.5,122.5,200,220,-225,220,572.5,,SBD,Raw,M,Juniors 16-17,Yes
1,Johnny Brumfield,OH,110,106.6,,19,252.5,262.5,-272.5,262.5,137.5,145,-147.5,145,247.5,257.5,267.5,267.5,675,,SBD,Raw,M,Juniors 18-19,Yes
2,Mason Thomas,,110,109.4,,18,162.5,182.5,-200,182.5,110,120,-122.5,120,220,242.5,-247.5,242.5,545,,SBD,Raw,M,Juniors 18-19,Yes
1,Steven Sullivan,PA,110,105.4,,20,232.5,242.5,252.5,252.5,135,-142.5,,135,255,-265,-265,255,642.5,,SBD,Raw,M,Juniors 20-23,Yes
1,Calerb D'Haiti,OH,82.5,81.6,,26,242.5,247.5,250,250,140,142.5,-147.5,142.5,282.5,287.5,290,290,682.5,,SBD,Raw,M,Open,Yes
2,Chase Lutes,OH,82.5,79.2,,28,100,107.5,117.5,117.5,60,65,-72.5,65,107.5,125,137.5,137.5,320,,SBD,Raw,M,Open,Yes
1,Macallan Butzer,OH,90,87.6,,18,215,232.5,247.5,247.5,120,130,-137.5,130,252.5,275,285,285,662.5,,SBD,Raw,M,Open,Yes
2,Phoenix Ross,PA,90,87.8,,15,150,157.5,162.5,162.5,82.5,-90,90,90,182.5,190,-200,190,442.5,,SBD,Raw,M,Open,Yes
1,Tate Gibson,OH,110,108.2,,33,207.5,217.5,230,230,142.5,150,160,160,272.5,292.5,-297.5,292.5,682.5,,SBD,Raw,M,Open,Yes
2,Johnny Brumfield,OH,110,106.6,,19,252.5,262.5,-272.5,262.5,137.5,145,-147.5,145,247.5,257.5,267.5,267.5,675,,SBD,Raw,M,Open,Yes
3,Steven Sullivan,PA,110,105.4,,20,232.5,242.5,252.5,252.5,135,-142.5,,135,255,-265,-265,255,642.5,,SBD,Raw,M,Open,Yes
4,Jon Lang,OH,110,100.8,,31,-165,165,180,180,107.5,112.5,115,115,207.5,217.5,-227.5,217.5,512.5,,SBD,Raw,M,Open,Yes
1,Anthony Rini,OH,125,118.4,,45,230,-240,240,240,175,-182.5,-182.5,175,235,-242.5,-242.5,235,650,,SBD,Raw,M,Open,Yes
2,Devin Hawkins,OH,125,122,,26,232.5,-245,245,245,145,-155,-165,145,232.5,252.5,-272.5,252.5,642.5,,SBD,Raw,M,Open,Yes
3,Zachary Taylor,OH,125,120,,39,90,105,115,115,100,-110,110,110,130,160,170,170,395,,SBD,Raw,M,Open,Yes
1,Joshua Huffman,OH,82.5,76.9,,31,200,210,-217.5,210,132.5,-137.5,-137.5,132.5,220,232.5,-242.5,232.5,575,,SBD,Raw,M,Open,Yes
DQ,Arvin Banaag,OH,100,98.3,,43,215,227.5,235,235,170,-180,180,180,-200,,,,,,SBD,Raw,M,Masters 40-44,Yes
1,Steve Anderson,OH,110,102.8,,53,125,137.5,-150,137.5,115,125,-127.5,125,190,200,-212.5,200,462.5,,SBD,Raw,M,Masters 50-54,Yes
1,Mike Kasunick,OH,110,108.2,,59,177.5,-190,190,190,130,-137.5,-137.5,130,225,237.5,-247.5,237.5,557.5,,SBD,Raw,M,Masters 55-59,Yes
1,Anthony Rini,OH,125,118.4,,45,230,-240,240,240,175,-182.5,-182.5,175,235,-242.5,-242.5,235,650,,SBD,Raw,M,Masters 45-49,Yes
1,Lonny Spencer,OH,125,120.4,,55,162.5,172.5,187.5,187.5,112.5,117.5,-125,117.5,222.5,230,235,235,540,,SBD,Raw,M,Masters 55-59,Yes
1,Renata Contini,OH,82.5,80.8,,50,92.5,105,110,110,47.5,52.5,,52.5,110,120,122.5,122.5,285,,SBD,Wraps,F,Masters 50-54,Yes
1,Seth Miller,OH,67.5,64.4,,18,142.5,150,160,160,87.5,-92.5,-95,87.5,155,175,185,185,432.5,,SBD,Wraps,M,Juniors 18-19,Yes
1,Alexander Freyer,PA,75,73.8,,39,225,235,240.5,240.5,127.5,132.5,137.5,137.5,227.5,238,-245,238,616,,SBD,Wraps,M,Open,Yes
1,Jeremie Bates,OH,82.5,81.7,,29,182.5,205,215,215,120,130,-132.5,130,210,227.5,-237.5,227.5,572.5,,SBD,Wraps,M,Open,Yes
1,Eian Birtcher,OH,90,89,,32,222.5,230,235,235,152.5,-160,-160,152.5,255,260,265,265,652.5,,SBD,Wraps,M,Open,Yes
2,Colt Bush,OH,90,88,,26,170,187.5,192.5,192.5,65,97.5,110,110,192.5,220,-227.5,220,522.5,,SBD,Wraps,M,Open,Yes
1,Cody Bush,OH,100,98.4,,26,-170,170,192.5,192.5,105,112.5,-120,112.5,205,230,-237.5,230,535,,SBD,Wraps,M,Open,Yes
1,Charlie Ellis,OH,110,103.4,,27,187.5,195,200,200,132.5,135,-137.5,135,240,250,-255,250,585,,SBD,Wraps,M,Open,Yes
1,Alexander Freyer,PA,75,73.8,,39,225,235,240.5,240.5,127.5,132.5,137.5,137.5,227.5,238,-245,238,616,,SBD,Wraps,M,Submasters 35-39,Yes
DQ,Luke Hufstetler,OH,110,108.2,,36,-177.5,-177.5,,,,,,,,,,,,,SBD,Wraps,M,Submasters 35-39,Yes
1,George Glenny,OH,125,116.2,,51,182.5,200,220,220,140,155,-162.5,155,200,217.5,232.5,232.5,607.5,,SBD,Wraps,M,Masters 50-54,Yes
1,Maci Payne,OH,67.5,61.1,,15,,,,,32.5,35,-40,35,,,,,35,,B,Raw,F,Juniors 13-15,Yes
1,Gavin Maibach,OH,140,127.4,,18,,,,,137.5,142.5,147.5,147.5,,,,,147.5,,B,Raw,M,Juniors 18-19,Yes
1,Gavin Maibach,OH,140,127.4,,18,,,,,137.5,142.5,147.5,147.5,,,,,147.5,,B,Raw,M,Open,Yes
1,Jarrod Mulheim,OH,82.5,81.4,,41,,,,,127.5,-135.5,-135.5,127.5,,,,,127.5,,B,Raw,M,Masters 40-44,Yes
1,Maci Payne,OH,67.5,61.1,,15,,,,,,,,,92.5,95,100,100,100,102.5,D,Raw,F,Juniors 13-15,Yes
1,Gavin Maibach,OH,140,127.4,,18,,,,,,,,,125,132.5,145,145,145,,D,Raw,M,Juniors 18-19,Yes
1,Michael Brown #10,OH,125,123.8,,39,,,,,,,,,255,272.5,-290,272.5,272.5,,D,Raw,M,Open,Yes
1,Gavin Maibach,OH,140,127.4,,18,,,,,,,,,125,132.5,145,145,145,,D,Raw,M,Open,Yes
