Division,WeightClassKg,Place,Name,Team,BodyweightKg,Best3SquatKg,Best3BenchKg,Best3DeadliftKg,TotalKg,Equipment,Event,Sex
Boys,51.71,1,Tommy Hession,College Station,50.62,127.01,63.5,129.27,319.78,Single-ply,SBD,M
Boys,51.71,2,Nathan Jeter,Rockdale,50.89,106.59,63.5,129.27,299.37,Single-ply,SBD,M
Boys,51.71,3,Onesimo Esquivel,San Marcos,45.9,74.84,43.09,102.06,219.99,Single-ply,SBD,M
Boys,55.79,1,Jeremiah Thompson,Manor,55.25,167.83,102.06,170.1,439.98,Single-ply,SBD,M
Boys,55.79,2,Pedro Saldivar,Kyle Lehman,55.07,136.08,88.45,172.37,396.89,Single-ply,SBD,M
Boys,55.79,3,Caleb Burleson,College Station,55.07,136.08,97.52,161.03,394.63,Single-ply,SBD,M
Boys,55.79,4,Sterling Dukett,Kyle Lehman,53.61,104.33,65.77,127.01,297.1,Single-ply,SBD,M
Boys,55.79,DQ,Avery Boundy,Rockdale,55.79,,,,,Single-ply,SBD,M
Boys,59.87,1,Jacob Vasquez #1,Kyle Lehman,59.33,188.24,86.18,206.38,480.81,Single-ply,SBD,M
Boys,59.87,2,Kellen Hapes,College Station,59.51,145.15,88.45,147.42,381.02,Single-ply,SBD,M
Boys,59.87,3,Jeovanny Navarro,Rockdale,58.15,129.27,92.99,147.42,369.68,Single-ply,SBD,M
Boys,59.87,4,Rolando Valenzuela,Kyle Lehman,59.69,124.74,79.38,149.69,353.8,Single-ply,SBD,M
Boys,59.87,5,Mikey Rodriguez,Thrall,57.42,127.01,77.11,136.08,340.19,Single-ply,SBD,M
Boys,59.87,6,Max Finn,Thrall,59.15,106.59,70.31,149.69,326.59,Single-ply,SBD,M
Boys,59.87,7,David Leonard,San Marcos,59.78,104.33,63.5,136.08,303.91,Single-ply,SBD,M
Boys,67.13,1,Carlos Esquivel,Manor,65.95,192.78,111.13,199.58,503.49,Single-ply,SBD,M
Boys,67.13,2,Therrance Soto,San Marcos,63.05,165.56,99.79,210.92,476.27,Single-ply,SBD,M
Boys,67.13,3,Michael Pettibon,College Station,66.86,156.49,77.11,149.69,383.29,Single-ply,SBD,M
Boys,67.13,4,Ethan Hall,College Station,67.13,156.49,74.84,151.95,383.29,Single-ply,SBD,M
Boys,67.13,5,Alejandro Calderon,San Marcos,62.51,154.22,77.11,140.61,371.95,Single-ply,SBD,M
Boys,67.13,6,Hayden Jones #2,Thrall,62.41,120.2,81.65,158.76,360.61,Single-ply,SBD,M
Boys,67.13,7,Billy Renfro,Thrall,66.5,95.25,70.31,145.15,310.71,Single-ply,SBD,M
Boys,67.13,DQ,Joseph Nguyen,Pflugerville Connally,64.77,127.01,,,,Single-ply,SBD,M
Boys,67.13,DQ,Aden Ramirez,Pflugerville Connally,66.77,122.47,,,,Single-ply,SBD,M
Boys,74.84,1,Christan Caballero,San Marcos,71.49,188.24,117.93,235.87,542.04,Single-ply,SBD,M
Boys,74.84,2,Ray Helser,Kyle Lehman,68.31,183.7,131.54,204.12,519.36,Single-ply,SBD,M
Boys,74.84,3,Ruben Jarmillo,Manor,73.57,183.7,113.4,215.46,512.56,Single-ply,SBD,M
Boys,74.84,4,Christian Alvarez #1,San Marcos,72.39,185.97,106.59,192.78,485.34,Single-ply,SBD,M
Boys,74.84,5,Kiran Payton,Kyle Lehman,69.31,170.1,104.33,183.7,458.13,Single-ply,SBD,M
Boys,74.84,6,Dylan Basham,San Marcos,74.75,165.56,111.13,174.63,451.32,Single-ply,SBD,M
Boys,74.84,7,Mario Mendez,Thrall,71.49,158.76,102.06,170.1,430.91,Single-ply,SBD,M
Boys,74.84,8,Daniel Santana,San Marcos,67.59,165.56,97.52,165.56,428.64,Single-ply,SBD,M
Boys,74.84,9,Aaron Vega,Elgin,73.57,147.42,102.06,165.56,415.04,Single-ply,SBD,M
Boys,74.84,10,Kevin Pham,Manor,71.12,158.76,86.18,158.76,403.7,Single-ply,SBD,M
Boys,74.84,11,John Martinez,College Station,71.76,154.22,90.72,151.95,396.89,Single-ply,SBD,M
Boys,74.84,12,Phu Trinh,Pflugerville Connally,71.58,142.88,95.25,149.69,387.82,Single-ply,SBD,M
Boys,74.84,13,Kade Casey,Pflugerville Connally,72.57,136.08,81.65,149.69,367.41,Single-ply,SBD,M
Boys,74.84,14,Bryan Ortiz-Pineda,Pflugerville Connally,73.21,147.42,61.23,145.15,353.8,Single-ply,SBD,M
Boys,74.84,15,Joey Mojica,Kyle Lehman,67.59,108.86,86.18,138.35,333.39,Single-ply,SBD,M
Boys,74.84,16,Abdias Castillo,Elgin,71.94,120.2,83.91,124.74,328.85,Single-ply,SBD,M
Boys,74.84,17,Nathan Thomas,Rockdale,70.58,106.59,95.25,115.67,317.51,Single-ply,SBD,M
Boys,74.84,18,Kendall Hudson,Elgin,71.4,113.4,79.38,113.4,306.17,Single-ply,SBD,M
Boys,74.84,19,Ethan Kemp,Thrall,74.84,102.06,65.77,127.01,294.84,Single-ply,SBD,M
Boys,74.84,DQ,Harrison Whitman,Pflugerville Connally,74.84,,,,,Single-ply,SBD,M
Boys,74.84,DQ,James McDonald,Manor,74.84,,,,,Single-ply,SBD,M
Boys,74.84,DQ,Geronimo Serrato,Pflugerville Connally,67.95,,,,,Single-ply,SBD,M
Boys,82.1,1,Andrew Rodriguez,Kyle Lehman,80.74,210.92,124.74,210.92,546.58,Single-ply,SBD,M
Boys,82.1,2,Rodrigo Valdez,College Station,81.37,206.38,111.13,188.24,505.76,Single-ply,SBD,M
Boys,82.1,3,Kable Rowland,Thrall,79.92,147.42,83.91,170.1,401.43,Single-ply,SBD,M
Boys,82.1,4,Tindol Cade,Thrall,78.38,147.42,86.18,149.69,383.29,Single-ply,SBD,M
Boys,82.1,5,Sam Lucia,Thrall,80.1,138.35,83.91,154.22,376.48,Single-ply,SBD,M
Boys,82.1,6,Hayden Aguilar,Rockdale,79.2,113.4,68.04,140.61,322.05,Single-ply,SBD,M
Boys,82.1,7,McKade Casas,Rockdale,79.38,108.86,61.23,127.01,297.1,Single-ply,SBD,M
Boys,82.1,DQ,Bruce Mayfield,Rockdale,82.1,,,,,Single-ply,SBD,M
Boys,82.1,DQ,Chris Remaley,Rockdale,82.1,,,,,Single-ply,SBD,M
Boys,82.1,DQ,Joseph Mora,Elgin,78.2,,,,,Single-ply,SBD,M
Boys,89.81,1,Courtney Lee #1,Manor,87.09,219.99,120.2,256.28,596.47,Single-ply,SBD,M
Boys,89.81,2,Jaden Moreno,Pflugerville Connally,88.27,226.8,158.76,190.51,576.06,Single-ply,SBD,M
Boys,89.81,3,Cirillo Gonzales,Manor,89.81,192.78,120.2,215.46,528.44,Single-ply,SBD,M
Boys,89.81,4,Kolbe Cashion,College Station,89.27,204.12,115.67,176.9,496.68,Single-ply,SBD,M
Boys,89.81,5,Jonathan Cervantes,Elgin,86.09,163.29,102.06,158.76,424.11,Single-ply,SBD,M
Boys,89.81,6,Dom Colon,Pflugerville Connally,82.28,154.22,97.52,138.35,390.09,Single-ply,SBD,M
Boys,89.81,7,Millicent Grear,Pflugerville Connally,86.82,142.88,90.72,156.49,390.09,Single-ply,SBD,M
Boys,99.79,1,Tajha Brooks,Manor,95.98,226.8,133.81,242.67,603.28,Single-ply,SBD,M
Boys,99.79,2,Brandon Rangel,San Marcos,99.7,201.85,127.01,217.72,546.58,Single-ply,SBD,M
Boys,99.79,3,Ever O'Neil,College Station,97.79,229.06,127.01,188.24,544.31,Single-ply,SBD,M
Boys,99.79,4,Tyler Christensen,College Station,91.63,208.65,124.74,206.38,539.77,Single-ply,SBD,M
Boys,99.79,5,Chris Reyes,Rockdale,93.89,167.83,92.99,172.37,433.18,Single-ply,SBD,M
Boys,99.79,6,Alex Ellison,Rockdale,98.61,154.22,102.06,154.22,410.5,Single-ply,SBD,M
Boys,99.79,7,Francisco Rosas,Pflugerville Connally,94.26,136.08,72.57,142.88,351.53,Single-ply,SBD,M
Boys,99.79,DQ,Javier Mejia,Kyle Lehman,99.79,,,,,Single-ply,SBD,M
Boys,99.79,DQ,Colby Monroe,Rockdale,99.79,,,,,Single-ply,SBD,M
Boys,99.79,DQ,Dariem Borel,Manor,96.98,192.78,136.08,,,Single-ply,SBD,M
Boys,109.77,1,Jordan Hammonds,Kyle Lehman,107.86,281.23,154.22,249.48,684.92,Single-ply,SBD,M
Boys,109.77,2,Seth Sanchez,Kyle Lehman,100.97,242.67,136.08,244.94,623.69,Single-ply,SBD,M
Boys,109.77,3,Harley Franklin,Elgin,104.42,217.72,127.01,249.48,594.21,Single-ply,SBD,M
Boys,109.77,4,John Sanchez #5,San Marcos,106.96,204.12,136.08,213.19,553.38,Single-ply,SBD,M
Boys,109.77,5,Ty Thorton,Manor,109.5,183.7,120.2,204.12,508.02,Single-ply,SBD,M
Boys,109.77,6,Chris Rivera,Pflugerville Connally,107.14,197.31,102.06,188.24,487.61,Single-ply,SBD,M
Boys,109.77,7,Gavin Aguilar,Rockdale,108.32,158.76,97.52,158.76,415.04,Single-ply,SBD,M
Boys,124.74,1,Truce Tumlinson,College Station,111.49,265.35,149.69,242.67,657.71,Single-ply,SBD,M
Boys,124.74,2,John McKee,Pflugerville Connally,116.66,238.14,142.88,226.8,607.81,Single-ply,SBD,M
Boys,124.74,3,Princely Umanmielen,Manor,119.75,244.94,124.74,226.8,596.47,Single-ply,SBD,M
Boys,124.74,4,Kallen Maxwell,Pflugerville Connally,123.92,226.8,142.88,199.58,569.26,Single-ply,SBD,M
Boys,124.74,5,Marcos Rodriguez,Elgin,117.93,204.12,138.35,192.78,535.24,Single-ply,SBD,M
Boys,124.74,6,Oz Diaz,Pflugerville Connally,123.83,197.31,113.4,190.51,501.22,Single-ply,SBD,M
Boys,124.74,7,Jordan Moreno,Pflugerville Connally,113.67,188.24,113.4,174.63,476.27,Single-ply,SBD,M
Boys,124.74,8,Juan Solis,Elgin,124.38,158.76,99.79,138.35,396.89,Single-ply,SBD,M
Boys,124.74,DQ,Jimmy Garza,Elgin,120.93,204.12,113.4,,,Single-ply,SBD,M
Boys,124.74+,1,Jordan Hood,Elgin,139.8,274.42,183.7,238.14,696.26,Single-ply,SBD,M
Boys,124.74+,2,Robert Barrera,Rockdale,126.64,244.94,129.27,190.51,564.72,Single-ply,SBD,M
Boys,124.74+,3,Mark Velasquez,San Marcos,155.31,192.78,131.54,195.04,519.36,Single-ply,SBD,M
Boys,124.74+,DQ,Justin Pierson,Manor,125.19,,,,,Single-ply,SBD,M
Boys,124.74+,DQ,John Rebolloso,Elgin,127.1,,,,,Single-ply,SBD,M
Boys,124.74+,DQ,Ryleigh O'Campo,Thrall,146.96,,,,,Single-ply,SBD,M
