Place,Name,Sex,BirthDate,Age,Country,State,Equipment,Division,BodyweightKg,WeightClassKg,Squat1Kg,Squat2Kg,Squat3Kg,Squat4Kg,Best3SquatKg,Bench1Kg,Bench2Kg,Bench3Kg,Best3BenchKg,Deadlift1Kg,Deadlift2Kg,Deadlift3Kg,Best3DeadliftKg,TotalKg,Event
1,Stephanie Winchip,F,,,,,Sleeves,Open,101.1,110,130,140,-145,,140,65,67.5,70,70,145,155,160,160,370,SBD
1,Billie Gregory,F,1979-11-10,44,USA,NY,Sleeves,M40-44,86,90,107.5,-112.5,112.5,117.5,112.5,77.5,-82.5,82.5,82.5,142.5,150,162.5,162.5,357.5,SBD
1,Joanne Skerritt,F,1946-05-22,77,USA,NY,Sleeves,M75-79,54.6,56,55,60,65,,65,20,25,27.5,27.5,85,90,95,95,187.5,SBD
1,Kimberly Henderson,F,1988-07-22,35,USA,NY,Sleeves,Open,78.9,82.5,125,130,137.5,,137.5,80,-85,-85,80,152.5,160,167.5,167.5,385,SBD
1,Martha Codio,F,1986-05-23,37,USA,NY,Sleeves,S35-39,71.4,75,40,45,52.5,,52.5,35,40,42.5,42.5,85,92.5,100,100,195,SBD
1,Kimberly Henderson,F,1988-07-22,35,USA,NY,Sleeves,S35-39,78.9,82.5,125,130,137.5,,137.5,80,-85,-85,80,152.5,160,167.5,167.5,385,SBD
1,Colleen Lapier,F,2006-07-19,17,USA,NY,Sleeves,T16-17,67.2,67.5,102.5,-112.5,115,,115,52.5,60,67.5,67.5,115,125,127.5,127.5,310,SBD
1,Kolbi Smith,F,1992-09-11,,USA,NY,Multi-ply,Open,124,110+,,,,,,120,125,-130,125,175,182.5,192.5,192.5,317.5,BD
1,Tiffany Swift,F,,42,USA,NY,Sleeves,M40-44,74.8,75,,,,,,75,-82.5,-82.5,75,,,,,75,B
1,Tiffany Swift,F,,42,USA,NY,Sleeves,Open,74.8,75,,,,,,75,-82.5,-82.5,75,,,,,75,B
1,Chris Ciccarelli,M,1983-10-26,40,USA,NY,Sleeves,M40-44,106.5,110,212.5,220,-227.5,,220,147.5,155,160,160,230,250,257.5,257.5,637.5,SBD
1,Cary Soloyna,M,1975-02-06,48,USA,NY,Sleeves,M45-49,115.9,125,217.5,232.5,242.5,,242.5,165,170,-175,170,240,257.5,272.5,272.5,685,SBD
G,James Farina,M,1978-12-30,45,USA,NY,Sleeves,M45-49,127.7,140,210,227.5,240,,240,170,182.5,192.5,192.5,207.5,227.5,240,240,672.5,SBD
1,Ray Reynolds,M,1976-11-26,47,,,Sleeves,M45-49,146.4,140+,207.5,-225,225,,225,127.5,142.5,147.5,147.5,210,230,242.5,242.5,615,SBD
1,John Vdoviak,M,1956-03-29,67,USA,NY,Sleeves,M65-69,118.6,125,135,145,157.5,,157.5,110,115,117.5,117.5,187.5,195,205,205,480,SBD
1,Jason Hart,M,1999-08-22,24,USA,NY,Sleeves,Open,64.7,67.5,115,122.5,130,,130,57.5,62.5,-67.5,62.5,137.5,147.5,155,155,347.5,SBD
1,Samuel Anderson,M,1993-07-19,30,USA,NY,Sleeves,Open,89.4,90,235,247.5,257.5,,257.5,137.5,145,147.5,147.5,235,250,257.5,257.5,662.5,SBD
2,Michael Marinello,M,1992-07-25,31,USA,NY,Sleeves,Open,87.7,90,215,237.5,250,,250,105,110,120,120,250,272.5,285,285,655,SBD
3,Michael Norwood,M,1996-09-21,27,USA,NY,Sleeves,Open,89.3,90,192.5,200,205,,205,125,132.5,137.5,137.5,300,-322.5,-322.5,300,642.5,SBD
4,Ditaye Douglas,M,1996-11-07,27,USA,NY,Sleeves,Open,87.2,90,195,202.5,207.5,,207.5,150,-157.5,-157.5,150,242.5,260,-272.5,260,617.5,SBD
1,Bradley Mulverhill,M,1995-07-20,28,USA,NY,Sleeves,Open,108.8,110,260,282.5,-292.5,,282.5,-192.5,192.5,-205,192.5,265,280,-300,280,755,SBD
2,Joe Lisa,M,1990-12-12,33,USA,NY,Sleeves,Open,108.8,110,205,-220,-220,,205,120,127.5,-135,127.5,250,-272.5,-272.5,250,582.5,SBD
1,Bryson Becker,M,2009-01-11,15,USA,NY,Sleeves,T13-15,80.8,82.5,107.5,122.5,137.5,,137.5,62.5,75,77.5,77.5,152.5,175,192.5,192.5,407.5,SBD
1,Tyler Rizzo,M,2008-11-21,15,USA,NY,Sleeves,T13-15,59.2,60,92.5,102.5,112.5,,112.5,60,65,-67.5,65,105,112.5,125,125,302.5,SBD
1,Tristan Cline,M,2006-07-13,17,USA,NY,Sleeves,T16-17,71.8,75,140,150,167.5,,167.5,65,72.5,-80,72.5,167.5,182.5,-192.5,182.5,422.5,SBD
1,Mohammed Tijani,M,2004-05-21,19,USA,NY,Sleeves,T18-19,87.7,90,185,190,197.5,,197.5,120,125,-130,125,247.5,262.5,-272.5,262.5,585,SBD
1,Aiden Schulte,M,2005-12-05,18,USA,NY,Sleeves,T18-19,97,100,165,175,185,,185,115,125,-137.5,125,175,197.5,205,205,515,SBD
1,Adam Fish,M,1982-11-12,41,USA,NY,Unlimited,M40-44,97.7,100,375,-410,-410,,375,365,392.5,410,410,257.5,-287.5,287.5,287.5,1072.5,SBD
1,Orlando Tacardon,M,1994-12-11,29,USA,NY,Unlimited,Open,66.4,67.5,120,130,137.5,,137.5,85,97.5,-100,97.5,175,190,-197.5,190,425,SBD
1,Steven Hallenbeck,M,1989-02-07,34,USA,NY,Unlimited,Open,89.7,90,205,217.5,230,,230,147.5,155,-160,155,205,-217.5,217.5,217.5,602.5,SBD
1,Chris Rizzo,M,1973-03-17,50,USA,NY,Sleeves,M50-54,90,90,,,,,,77.5,85,-90,85,147.5,165,182.5,182.5,267.5,BD
1,Brodie Savoie,M,2010-05-02,13,USA,NY,Sleeves,T13-15,77.5,82.5,,,,,,65,-75,-75,65,125,135,145,145,210,BD
DQ,Andrew Zylinsky,M,1972-06-22,51,USA,NY,Sleeves,M50-54,108.5,110,-137.5,137.5,142.5,,142.5,-137.5,-137.5,-137.5,,,,,,,SB
1,Aaron Quigley,M,,44,USA,NY,Sleeves,M40-44,87.4,90,,,,,,120,130,,130,,,,,130,B
1,Mark Kelly,M,1972-12-26,51,USA,NY,Sleeves,M50-54,97.7,100,,,,,,160,-165,,160,,,,,160,B
1,Erik Balogh,M,1971-07-13,52,USA,NY,Sleeves,M50-54,114.3,125,,,,,,177.5,185,190,190,,,,,190,B
1,Shane Mcadams,M,1994-05-29,29,USA,NY,Sleeves,Open,73.6,75,,,,,,112.5,120,130,130,,,,,130,B
2,Erick Rivera,M,1996-03-06,27,USA,NY,Sleeves,Open,69.3,75,,,,,,110,117.5,-125,117.5,,,,,117.5,B
1,Rich Putnam,M,1977-06-07,46,USA,NY,Unlimited,M45-49,130.7,140,,,,,,430,-465,,430,,,,,430,B
1,Dave Kingwater,M,1972-12-15,,USA,NY,Unlimited,M50-54,110.3,125,,,,,,292.5,305,317.5,317.5,,,,,317.5,B
DQ,Erik Balogh,M,1971-07-13,52,USA,NY,Unlimited,M50-54,114.3,125,,,,,,-352.5,-352.5,-352.5,,,,,,,B
1,Mark VanAlstyne,M,1967-05-12,,USA,NY,Unlimited,M55-59,89.1,90,,,,,,275,-285,-285,275,,,,,275,B
1,Robert Cushman,M,1964-09-16,59,USA,NY,Unlimited,M55-59,106,110,,,,,,235,-272.5,-272.5,235,,,,,235,B
1,Dyke Naughton,M,1964-01-10,60,USA,NY,Unlimited,M60-64,70.3,75,,,,,,180,190,195,195,,,,,195,B
DQ,Zachary Gibson,M,1996-03-25,,USA,NY,Unlimited,Open,179.3,140+,,,,,,-455,-455,-455,,,,,,,B
DQ,Jack Gardy,M,1983-06-18,40,USA,NY,Unlimited,Open,134.6,140,,,,,,-332.5,-332.5,-332.5,,,,,,,B
1,Aaron Walters,M,,,USA,NY,Sleeves,S35-39,89.9,90,,,,,,,,,,120,132.5,142.5,142.5,142.5,D
